{
  "config": {
    "title": "Thiago Franco Portfolio",
    "description": "Portfolio of Thiago Franco UX",
    "themeConfig": {},
    "ordering": "descending",
    "version": "1.0.0",
    "src": "./src",
    "plugins": [
      {}
    ]
  },
  "entries": {
    "js/styleguide/colors.mdx": {
      "name": "Colors",
      "route": "/colors",
      "id": "01CMR92NPGYF2HTXDSV209263C",
      "filepath": "js/styleguide/colors.mdx",
      "link": "https://bitbucket.org/thiagofrancocc/thiagofranco/tree/master/src/js/styleguide/colors.mdx",
      "slug": "js-styleguide-colors",
      "order": 0,
      "menu": null,
      "headings": [
        {
          "depth": 1,
          "slug": "colors",
          "value": "Colors"
        },
        {
          "depth": 3,
          "slug": "obs",
          "value": "Obs"
        }
      ]
    },
    "js/styleguide/header.mdx": {
      "name": "Header",
      "route": "/components/header",
      "order": 1,
      "menu": "Components",
      "id": "01CMR92NPJEDEVBGMF4Y1X8CGJ",
      "filepath": "js/styleguide/header.mdx",
      "link": "https://bitbucket.org/thiagofrancocc/thiagofranco/tree/master/src/js/styleguide/header.mdx",
      "slug": "js-styleguide-header",
      "headings": [
        {
          "depth": 1,
          "slug": "header",
          "value": "Header"
        }
      ]
    },
    "js/styleguide/icons.mdx": {
      "name": "Icons",
      "route": "/icons",
      "id": "01CMR92NPJV8HFT63HSGE133Q4",
      "filepath": "js/styleguide/icons.mdx",
      "link": "https://bitbucket.org/thiagofrancocc/thiagofranco/tree/master/src/js/styleguide/icons.mdx",
      "slug": "js-styleguide-icons",
      "order": 0,
      "menu": null,
      "headings": [
        {
          "depth": 1,
          "slug": "icons",
          "value": "Icons"
        }
      ]
    },
    "js/styleguide/links.mdx": {
      "name": "Links",
      "route": "/links",
      "id": "01CMR92NPJ1WP222JY9QNM8Z9E",
      "filepath": "js/styleguide/links.mdx",
      "link": "https://bitbucket.org/thiagofrancocc/thiagofranco/tree/master/src/js/styleguide/links.mdx",
      "slug": "js-styleguide-links",
      "order": 0,
      "menu": null,
      "headings": [
        {
          "depth": 1,
          "slug": "links",
          "value": "Links"
        }
      ]
    },
    "js/styleguide/typography.mdx": {
      "name": "Typography",
      "route": "/typography",
      "id": "01CMR92NPJ837BR6PSNT4R0GP2",
      "filepath": "js/styleguide/typography.mdx",
      "link": "https://bitbucket.org/thiagofrancocc/thiagofranco/tree/master/src/js/styleguide/typography.mdx",
      "slug": "js-styleguide-typography",
      "order": 0,
      "menu": null,
      "headings": [
        {
          "depth": 1,
          "slug": "typography",
          "value": "Typography"
        }
      ]
    }
  }
}